  ----
  432101234
-4
-3
-2
-1
 0    0
 1    00
 2
 3
 4





        00 00 0   0
         0 0  00 00


                     {1, 1, 0, 1, 1, 2, 1},
                     {1, 1, 0, 1, -1, 2, -1},
                     {1, 0, 1, 1, 1, 1, 2},
                     {1, 0, -1, 1, -1, 1, -2},
                     {2, 0, 1, 1, 1},
                     {2, 0, 1, 1, 0},
                     {2, 1, 0, 1, 1},
                     {2, 1, 0, 1, -1},
